sim/verilator/wave.vcd
$version Generated by VerilatedVcd $end
$timescale 1ps $end
 $scope module m_vlsit_apbdec_tb $end
  $var wire 32 O! ADDR_WIDTH [31:0] $end
  $var wire 32 P! DATA_WIDTH [31:0] $end
  $var wire 32 Q! WRITE_STROBE [31:0] $end
  $var wire 1 L! i_clk $end
  $var wire 1 M! i_rst_n $end
  $var wire 24 - m_paddr [23:0] $end
  $var wire 32 . m_pwdata [31:0] $end
  $var wire 32 / m_prdata [31:0] $end
  $var wire 1 0 m_pwrite $end
  $var wire 1 1 m_psel $end
  $var wire 1 2 m_penable $end
  $var wire 1 3 m_pready $end
  $var wire 1 4 m_pslverr $end
  $var wire 4 5 m_pstrb [3:0] $end
  $var wire 3 6 m_pprot [2:0] $end
  $var wire 1 7 o_psel_uart $end
  $var wire 1 2 o_penable_uart $end
  $var wire 1 0 o_pwrite_uart $end
  $var wire 8 8 o_paddr_uart [7:0] $end
  $var wire 32 . o_pwdata_uart [31:0] $end
  $var wire 4 5 o_pstrb_uart [3:0] $end
  $var wire 1 9 i_pready_uart $end
  $var wire 1 : i_pslverr_uart $end
  $var wire 32 ; i_prdata_uart [31:0] $end
  $var wire 1 < o_psel_i2c $end
  $var wire 1 2 o_penable_i2c $end
  $var wire 1 0 o_pwrite_i2c $end
  $var wire 4 = o_paddr_i2c [3:0] $end
  $var wire 32 . o_pwdata_i2c [31:0] $end
  $var wire 4 5 o_pstrb_i2c [3:0] $end
  $var wire 1 > i_pready_i2c $end
  $var wire 1 ? i_pslverr_i2c $end
  $var wire 32 @ i_prdata_i2c [31:0] $end
  $var wire 1 A o_psel_spi $end
  $var wire 1 2 o_penable_spi $end
  $var wire 1 0 o_pwrite_spi $end
  $var wire 12 B o_paddr_spi [11:0] $end
  $var wire 32 . o_pwdata_spi [31:0] $end
  $var wire 4 5 o_pstrb_spi [3:0] $end
  $var wire 1 C i_pready_spi $end
  $var wire 1 D i_pslverr_spi $end
  $var wire 32 E i_prdata_spi [31:0] $end
  $var wire 1 F o_psel_can $end
  $var wire 1 2 o_penable_can $end
  $var wire 1 0 o_pwrite_can $end
  $var wire 15 G o_paddr_can [14:0] $end
  $var wire 32 . o_pwdata_can [31:0] $end
  $var wire 4 5 o_pstrb_can [3:0] $end
  $var wire 1 H i_pready_can $end
  $var wire 1 I i_pslverr_can $end
  $var wire 32 J i_prdata_can [31:0] $end
  $var wire 1 K o_psel_pwm $end
  $var wire 1 2 o_penable_pwm $end
  $var wire 1 0 o_pwrite_pwm $end
  $var wire 8 8 o_paddr_pwm [7:0] $end
  $var wire 32 . o_pwdata_pwm [31:0] $end
  $var wire 4 5 o_pstrb_pwm [3:0] $end
  $var wire 1 L i_pready_pwm $end
  $var wire 1 M i_pslverr_pwm $end
  $var wire 32 N i_prdata_pwm [31:0] $end
  $var wire 1 O o_psel_gyro $end
  $var wire 1 2 o_penable_gyro $end
  $var wire 1 0 o_pwrite_gyro $end
  $var wire 10 P o_paddr_gyro [9:0] $end
  $var wire 32 . o_pwdata_gyro [31:0] $end
  $var wire 4 5 o_pstrb_gyro [3:0] $end
  $var wire 1 Q i_pready_gyro $end
  $var wire 1 R i_pslverr_gyro $end
  $var wire 32 S i_prdata_gyro [31:0] $end
  $scope module u_can_slave_bfm $end
   $var wire 32 R! PARA_ADDR_WIDTH [31:0] $end
   $var wire 32 S! PARA_DATA_WIDTH [31:0] $end
   $var wire 32 T! PARA_APB_WAIT_STATES [31:0] $end
   $var wire 1 L! i_clk $end
   $var wire 1 M! i_rst_n $end
   $var wire 15 G i_paddr [14:0] $end
   $var wire 32 . i_pwdata [31:0] $end
   $var wire 32 J o_prdata [31:0] $end
   $var wire 1 0 i_pwrite $end
   $var wire 1 F i_psel $end
   $var wire 1 2 i_penable $end
   $var wire 1 H o_pready $end
   $var wire 1 I o_pslverr $end
   $var wire 4 5 i_pstrb [3:0] $end
   $var wire 3 U! i_pprot [2:0] $end
   $var wire 32 V! PARA_MEM_DEPTH [31:0] $end
   $var wire 32 R! PARA_DMEM_ADDR_W [31:0] $end
   $var wire 32 R! PARA_IDX_W [31:0] $end
   $var wire 16 W! PARA_MEM_DEPTH_U [15:0] $end
   $var wire 32 T apb_wait_cnt [31:0] $end
   $var wire 1 U apb_req_valid $end
   $var wire 1 V apb_req_write $end
   $var wire 15 W apb_req_addr [14:0] $end
   $var wire 32 X apb_req_wdata [31:0] $end
   $var wire 4 Y apb_req_strb [3:0] $end
   $var wire 3 Z apb_req_prot [2:0] $end
   $var wire 15 [ apb_req_word_addr [14:0] $end
   $var wire 15 [ apb_req_word_idx [14:0] $end
   $var wire 1 X! apb_addr_in_range $end
   $var wire 32 \ apb_read_data [31:0] $end
   $scope module apb_slave_seq $end
    $var wire 32 ] i [31:0] $end
   $upscope $end
  $upscope $end
  $scope module u_gyro_slave_bfm $end
   $var wire 32 Y! PARA_ADDR_WIDTH [31:0] $end
   $var wire 32 S! PARA_DATA_WIDTH [31:0] $end
   $var wire 32 T! PARA_APB_WAIT_STATES [31:0] $end
   $var wire 1 L! i_clk $end
   $var wire 1 M! i_rst_n $end
   $var wire 10 P i_paddr [9:0] $end
   $var wire 32 . i_pwdata [31:0] $end
   $var wire 32 S o_prdata [31:0] $end
   $var wire 1 0 i_pwrite $end
   $var wire 1 O i_psel $end
   $var wire 1 2 i_penable $end
   $var wire 1 Q o_pready $end
   $var wire 1 R o_pslverr $end
   $var wire 4 5 i_pstrb [3:0] $end
   $var wire 3 U! i_pprot [2:0] $end
   $var wire 32 Z! PARA_MEM_DEPTH [31:0] $end
   $var wire 32 Y! PARA_DMEM_ADDR_W [31:0] $end
   $var wire 32 Y! PARA_IDX_W [31:0] $end
   $var wire 11 [! PARA_MEM_DEPTH_U [10:0] $end
   $var wire 32 ^ apb_wait_cnt [31:0] $end
   $var wire 1 _ apb_req_valid $end
   $var wire 1 ` apb_req_write $end
   $var wire 10 a apb_req_addr [9:0] $end
   $var wire 32 b apb_req_wdata [31:0] $end
   $var wire 4 c apb_req_strb [3:0] $end
   $var wire 3 d apb_req_prot [2:0] $end
   $var wire 10 e apb_req_word_addr [9:0] $end
   $var wire 10 e apb_req_word_idx [9:0] $end
   $var wire 1 X! apb_addr_in_range $end
   $var wire 32 f apb_read_data [31:0] $end
   $scope module apb_slave_seq $end
    $var wire 32 g i [31:0] $end
   $upscope $end
  $upscope $end
  $scope module u_i2c_slave_bfm $end
   $var wire 32 \! PARA_ADDR_WIDTH [31:0] $end
   $var wire 32 S! PARA_DATA_WIDTH [31:0] $end
   $var wire 32 T! PARA_APB_WAIT_STATES [31:0] $end
   $var wire 1 L! i_clk $end
   $var wire 1 M! i_rst_n $end
   $var wire 4 = i_paddr [3:0] $end
   $var wire 32 . i_pwdata [31:0] $end
   $var wire 32 @ o_prdata [31:0] $end
   $var wire 1 0 i_pwrite $end
   $var wire 1 < i_psel $end
   $var wire 1 2 i_penable $end
   $var wire 1 > o_pready $end
   $var wire 1 ? o_pslverr $end
   $var wire 4 5 i_pstrb [3:0] $end
   $var wire 3 U! i_pprot [2:0] $end
   $var wire 32 ]! PARA_MEM_DEPTH [31:0] $end
   $var wire 32 \! PARA_DMEM_ADDR_W [31:0] $end
   $var wire 32 \! PARA_IDX_W [31:0] $end
   $var wire 5 ^! PARA_MEM_DEPTH_U [4:0] $end
   $var wire 32 h dmem[0] [31:0] $end
   $var wire 32 i dmem[1] [31:0] $end
   $var wire 32 j dmem[2] [31:0] $end
   $var wire 32 k dmem[3] [31:0] $end
   $var wire 32 l dmem[4] [31:0] $end
   $var wire 32 m dmem[5] [31:0] $end
   $var wire 32 n dmem[6] [31:0] $end
   $var wire 32 o dmem[7] [31:0] $end
   $var wire 32 p dmem[8] [31:0] $end
   $var wire 32 q dmem[9] [31:0] $end
   $var wire 32 r dmem[10] [31:0] $end
   $var wire 32 s dmem[11] [31:0] $end
   $var wire 32 t dmem[12] [31:0] $end
   $var wire 32 u dmem[13] [31:0] $end
   $var wire 32 v dmem[14] [31:0] $end
   $var wire 32 w dmem[15] [31:0] $end
   $var wire 32 x apb_wait_cnt [31:0] $end
   $var wire 1 y apb_req_valid $end
   $var wire 1 z apb_req_write $end
   $var wire 4 { apb_req_addr [3:0] $end
   $var wire 32 | apb_req_wdata [31:0] $end
   $var wire 4 } apb_req_strb [3:0] $end
   $var wire 3 ~ apb_req_prot [2:0] $end
   $var wire 4 !! apb_req_word_addr [3:0] $end
   $var wire 4 !! apb_req_word_idx [3:0] $end
   $var wire 1 X! apb_addr_in_range $end
   $var wire 32 "! apb_read_data [31:0] $end
   $scope module apb_slave_seq $end
    $var wire 32 #! i [31:0] $end
   $upscope $end
  $upscope $end
  $scope module u_m_vlsit_apbdec $end
   $var wire 24 - i_paddr [23:0] $end
   $var wire 32 . i_pwdata [31:0] $end
   $var wire 4 5 i_pstrb [3:0] $end
   $var wire 1 0 i_pwrite $end
   $var wire 1 1 i_psel $end
   $var wire 1 2 i_penable $end
   $var wire 1 3 o_pready $end
   $var wire 1 4 o_pslverr $end
   $var wire 32 / o_prdata [31:0] $end
   $var wire 8 8 o_paddr_uart [7:0] $end
   $var wire 32 . o_pwdata_uart [31:0] $end
   $var wire 4 5 o_pstrb_uart [3:0] $end
   $var wire 1 7 o_psel_uart $end
   $var wire 1 2 o_penable_uart $end
   $var wire 1 0 o_pwrite_uart $end
   $var wire 1 9 i_pready_uart $end
   $var wire 1 : i_pslverr_uart $end
   $var wire 32 ; i_prdata_uart [31:0] $end
   $var wire 4 = o_paddr_i2c [3:0] $end
   $var wire 32 . o_pwdata_i2c [31:0] $end
   $var wire 4 5 o_pstrb_i2c [3:0] $end
   $var wire 1 < o_psel_i2c $end
   $var wire 1 2 o_penable_i2c $end
   $var wire 1 0 o_pwrite_i2c $end
   $var wire 1 > i_pready_i2c $end
   $var wire 1 ? i_pslverr_i2c $end
   $var wire 32 @ i_prdata_i2c [31:0] $end
   $var wire 12 B o_paddr_spi [11:0] $end
   $var wire 32 . o_pwdata_spi [31:0] $end
   $var wire 4 5 o_pstrb_spi [3:0] $end
   $var wire 1 A o_psel_spi $end
   $var wire 1 2 o_penable_spi $end
   $var wire 1 0 o_pwrite_spi $end
   $var wire 1 C i_pready_spi $end
   $var wire 1 D i_pslverr_spi $end
   $var wire 32 E i_prdata_spi [31:0] $end
   $var wire 15 G o_paddr_can [14:0] $end
   $var wire 32 . o_pwdata_can [31:0] $end
   $var wire 4 5 o_pstrb_can [3:0] $end
   $var wire 1 F o_psel_can $end
   $var wire 1 2 o_penable_can $end
   $var wire 1 0 o_pwrite_can $end
   $var wire 1 H i_pready_can $end
   $var wire 1 I i_pslverr_can $end
   $var wire 32 J i_prdata_can [31:0] $end
   $var wire 8 8 o_paddr_pwm [7:0] $end
   $var wire 32 . o_pwdata_pwm [31:0] $end
   $var wire 4 5 o_pstrb_pwm [3:0] $end
   $var wire 1 K o_psel_pwm $end
   $var wire 1 2 o_penable_pwm $end
   $var wire 1 0 o_pwrite_pwm $end
   $var wire 1 L i_pready_pwm $end
   $var wire 1 M i_pslverr_pwm $end
   $var wire 32 N i_prdata_pwm [31:0] $end
   $var wire 10 P o_paddr_gyro [9:0] $end
   $var wire 32 . o_pwdata_gyro [31:0] $end
   $var wire 4 5 o_pstrb_gyro [3:0] $end
   $var wire 1 O o_psel_gyro $end
   $var wire 1 2 o_penable_gyro $end
   $var wire 1 0 o_pwrite_gyro $end
   $var wire 1 Q i_pready_gyro $end
   $var wire 1 R i_pslverr_gyro $end
   $var wire 32 S i_prdata_gyro [31:0] $end
   $var wire 1 $! w_slave_uart_sel $end
   $var wire 1 %! w_slave_i2c_sel $end
   $var wire 1 &! w_slave_spi_sel $end
   $var wire 1 '! w_slave_can_sel $end
   $var wire 1 (! w_slave_pwm_sel $end
   $var wire 1 )! w_slave_gyro_sel $end
  $upscope $end
  $scope module u_master_bfm $end
   $var wire 32 _! PARA_ADDR_WIDTH [31:0] $end
   $var wire 32 S! PARA_DATA_WIDTH [31:0] $end
   $var wire 32 T! PARA_APB_WAIT_STATES [31:0] $end
   $var wire 1 L! i_clk $end
   $var wire 1 M! i_rst_n $end
   $var wire 24 - o_paddr [23:0] $end
   $var wire 32 . o_pwdata [31:0] $end
   $var wire 32 / i_prdata [31:0] $end
   $var wire 1 0 o_pwrite $end
   $var wire 1 1 o_psel $end
   $var wire 1 2 o_penable $end
   $var wire 1 3 i_pready $end
   $var wire 4 5 o_pstrb [3:0] $end
   $var wire 3 6 o_pprot [2:0] $end
   $var wire 2 *! state [1:0] $end
   $var wire 2 N! next_state [1:0] $end
   $var wire 1 +! trans_done $end
   $var wire 24 # req_addr [23:0] $end
   $var wire 32 $ req_wdata [31:0] $end
   $var wire 1 % req_write $end
   $var wire 4 & req_strb [3:0] $end
   $var wire 3 ' req_prot [2:0] $end
   $var wire 1 ( req_valid $end
   $var wire 32 ,! read_data [31:0] $end
   $var wire 32 -! wait_cnt [31:0] $end
  $upscope $end
  $scope module u_pwm_slave_bfm $end
   $var wire 32 `! PARA_ADDR_WIDTH [31:0] $end
   $var wire 32 S! PARA_DATA_WIDTH [31:0] $end
   $var wire 32 T! PARA_APB_WAIT_STATES [31:0] $end
   $var wire 1 L! i_clk $end
   $var wire 1 M! i_rst_n $end
   $var wire 8 8 i_paddr [7:0] $end
   $var wire 32 . i_pwdata [31:0] $end
   $var wire 32 N o_prdata [31:0] $end
   $var wire 1 0 i_pwrite $end
   $var wire 1 K i_psel $end
   $var wire 1 2 i_penable $end
   $var wire 1 L o_pready $end
   $var wire 1 M o_pslverr $end
   $var wire 4 5 i_pstrb [3:0] $end
   $var wire 3 U! i_pprot [2:0] $end
   $var wire 32 a! PARA_MEM_DEPTH [31:0] $end
   $var wire 32 `! PARA_DMEM_ADDR_W [31:0] $end
   $var wire 32 `! PARA_IDX_W [31:0] $end
   $var wire 9 b! PARA_MEM_DEPTH_U [8:0] $end
   $var wire 32 .! apb_wait_cnt [31:0] $end
   $var wire 1 /! apb_req_valid $end
   $var wire 1 0! apb_req_write $end
   $var wire 8 1! apb_req_addr [7:0] $end
   $var wire 32 2! apb_req_wdata [31:0] $end
   $var wire 4 3! apb_req_strb [3:0] $end
   $var wire 3 4! apb_req_prot [2:0] $end
   $var wire 8 5! apb_req_word_addr [7:0] $end
   $var wire 8 5! apb_req_word_idx [7:0] $end
   $var wire 1 X! apb_addr_in_range $end
   $var wire 32 6! apb_read_data [31:0] $end
   $scope module apb_slave_seq $end
    $var wire 32 7! i [31:0] $end
   $upscope $end
  $upscope $end
  $scope module u_spi_slave_bfm $end
   $var wire 32 c! PARA_ADDR_WIDTH [31:0] $end
   $var wire 32 S! PARA_DATA_WIDTH [31:0] $end
   $var wire 32 T! PARA_APB_WAIT_STATES [31:0] $end
   $var wire 1 L! i_clk $end
   $var wire 1 M! i_rst_n $end
   $var wire 12 B i_paddr [11:0] $end
   $var wire 32 . i_pwdata [31:0] $end
   $var wire 32 E o_prdata [31:0] $end
   $var wire 1 0 i_pwrite $end
   $var wire 1 A i_psel $end
   $var wire 1 2 i_penable $end
   $var wire 1 C o_pready $end
   $var wire 1 D o_pslverr $end
   $var wire 4 5 i_pstrb [3:0] $end
   $var wire 3 U! i_pprot [2:0] $end
   $var wire 32 d! PARA_MEM_DEPTH [31:0] $end
   $var wire 32 c! PARA_DMEM_ADDR_W [31:0] $end
   $var wire 32 c! PARA_IDX_W [31:0] $end
   $var wire 13 e! PARA_MEM_DEPTH_U [12:0] $end
   $var wire 32 8! apb_wait_cnt [31:0] $end
   $var wire 1 9! apb_req_valid $end
   $var wire 1 :! apb_req_write $end
   $var wire 12 ;! apb_req_addr [11:0] $end
   $var wire 32 <! apb_req_wdata [31:0] $end
   $var wire 4 =! apb_req_strb [3:0] $end
   $var wire 3 >! apb_req_prot [2:0] $end
   $var wire 12 ?! apb_req_word_addr [11:0] $end
   $var wire 12 ?! apb_req_word_idx [11:0] $end
   $var wire 1 X! apb_addr_in_range $end
   $var wire 32 @! apb_read_data [31:0] $end
   $scope module apb_slave_seq $end
    $var wire 32 A! i [31:0] $end
   $upscope $end
  $upscope $end
  $scope module u_uart_slave_bfm $end
   $var wire 32 `! PARA_ADDR_WIDTH [31:0] $end
   $var wire 32 S! PARA_DATA_WIDTH [31:0] $end
   $var wire 32 T! PARA_APB_WAIT_STATES [31:0] $end
   $var wire 1 L! i_clk $end
   $var wire 1 M! i_rst_n $end
   $var wire 8 8 i_paddr [7:0] $end
   $var wire 32 . i_pwdata [31:0] $end
   $var wire 32 ; o_prdata [31:0] $end
   $var wire 1 0 i_pwrite $end
   $var wire 1 7 i_psel $end
   $var wire 1 2 i_penable $end
   $var wire 1 9 o_pready $end
   $var wire 1 : o_pslverr $end
   $var wire 4 5 i_pstrb [3:0] $end
   $var wire 3 U! i_pprot [2:0] $end
   $var wire 32 a! PARA_MEM_DEPTH [31:0] $end
   $var wire 32 `! PARA_DMEM_ADDR_W [31:0] $end
   $var wire 32 `! PARA_IDX_W [31:0] $end
   $var wire 9 b! PARA_MEM_DEPTH_U [8:0] $end
   $var wire 32 B! apb_wait_cnt [31:0] $end
   $var wire 1 C! apb_req_valid $end
   $var wire 1 D! apb_req_write $end
   $var wire 8 E! apb_req_addr [7:0] $end
   $var wire 32 F! apb_req_wdata [31:0] $end
   $var wire 4 G! apb_req_strb [3:0] $end
   $var wire 3 H! apb_req_prot [2:0] $end
   $var wire 8 I! apb_req_word_addr [7:0] $end
   $var wire 8 I! apb_req_word_idx [7:0] $end
   $var wire 1 X! apb_addr_in_range $end
   $var wire 32 J! apb_read_data [31:0] $end
   $scope module apb_slave_seq $end
    $var wire 32 K! i [31:0] $end
   $upscope $end
  $upscope $end
  $scope module unnamedblk1 $end
   $var wire 32 ) v_rdata [31:0] $end
   $var wire 1 X! PSLVERR_VAL $end
   $var wire 32 * test_num [31:0] $end
   $var wire 32 + test_pass [31:0] $end
   $var wire 32 , test_fail [31:0] $end
  $upscope $end
 $upscope $end
$enddefinitions $end


#0
b000000000000000000000000 #
b00000000000000000000000000000000 $
0%
b0000 &
b000 '
0(
b00000000000000000000000000000000 )
b00000000000000000000000000000000 *
b00000000000000000000000000000000 +
b00000000000000000000000000000000 ,
b000000000000000000000000 -
b00000000000000000000000000000000 .
b00000000000000000000000000000000 /
00
01
02
03
04
b0000 5
b000 6
07
b00000000 8
09
0:
b00000000000000000000000000000000 ;
0<
b0000 =
0>
0?
b00000000000000000000000000000000 @
0A
b000000000000 B
0C
0D
b00000000000000000000000000000000 E
0F
b000000000000000 G
0H
0I
b00000000000000000000000000000000 J
0K
0L
0M
b00000000000000000000000000000000 N
0O
b0000000000 P
0Q
0R
b00000000000000000000000000000000 S
b00000000000000000000000000000000 T
0U
0V
b000000000000000 W
b00000000000000000000000000000000 X
b0000 Y
b000 Z
b000000000000000 [
b00000000000000000000000000000000 \
b00000000000000000000000000000000 ]
b00000000000000000000000000000000 ^
0_
0`
b0000000000 a
b00000000000000000000000000000000 b
b0000 c
b000 d
b0000000000 e
b00000000000000000000000000000000 f
b00000000000000000000000000000000 g
b00000000000000000000000000000000 h
b00000000000000000000000000000000 i
b00000000000000000000000000000000 j
b00000000000000000000000000000000 k
b00000000000000000000000000000000 l
b00000000000000000000000000000000 m
b00000000000000000000000000000000 n
b00000000000000000000000000000000 o
b00000000000000000000000000000000 p
b00000000000000000000000000000000 q
b00000000000000000000000000000000 r
b00000000000000000000000000000000 s
b00000000000000000000000000000000 t
b00000000000000000000000000000000 u
b00000000000000000000000000000000 v
b00000000000000000000000000000000 w
b00000000000000000000000000000000 x
0y
0z
b0000 {
b00000000000000000000000000000000 |
b0000 }
b000 ~
b0000 !!
b00000000000000000000000000000000 "!
b00000000000000000000000000000000 #!
1$!
0%!
0&!
0'!
0(!
0)!
b00 *!
0+!
b00000000000000000000000000000000 ,!
b00000000000000000000000000000000 -!
b00000000000000000000000000000000 .!
0/!
00!
b00000000 1!
b00000000000000000000000000000000 2!
b0000 3!
b000 4!
b00000000 5!
b00000000000000000000000000000000 6!
b00000000000000000000000000000000 7!
b00000000000000000000000000000000 8!
09!
0:!
b000000000000 ;!
b00000000000000000000000000000000 <!
b0000 =!
b000 >!
b000000000000 ?!
b00000000000000000000000000000000 @!
b00000000000000000000000000000000 A!
b00000000000000000000000000000000 B!
0C!
0D!
b00000000 E!
b00000000000000000000000000000000 F!
b0000 G!
b000 H!
b00000000 I!
b00000000000000000000000000000000 J!
b00000000000000000000000000000000 K!
0L!
0M!
b00 N!
b00000000000000000000000000011000 O!
b00000000000000000000000000100000 P!
b00000000000000000000000000000100 Q!
b00000000000000000000000000001111 R!
b00000000000000000000000000100000 S!
b00000000000000000000000000000000 T!
b000 U!
b00000000000000001000000000000000 V!
b1000000000000000 W!
1X!
b00000000000000000000000000001010 Y!
b00000000000000000000010000000000 Z!
b10000000000 [!
b00000000000000000000000000000100 \!
b00000000000000000000000000010000 ]!
b10000 ^!
b00000000000000000000000000011000 _!
b00000000000000000000000000001000 `!
b00000000000000000000000100000000 a!
b100000000 b!
b00000000000000000000000000001100 c!
b00000000000000000001000000000000 d!
b1000000000000 e!
#5000
b00000000000000001000000000000000 ]
b00000000000000000000010000000000 g
b00000000000000000000000000010000 #!
b00000000000000000000000100000000 7!
b00000000000000000001000000000000 A!
b00000000000000000000000100000000 K!
1L!
#10000
0L!
#15000
1L!
#20000
0L!
#25000
1L!
#30000
0L!
#35000
1L!
#40000
0L!
#45000
1L!
#50000
1(
b00000000000000000000000000000001 *
0L!
1M!
b01 N!
#55000
b01 *!
1L!
b10 N!
#60000
0L!
#65000
11
17
b10 *!
1L!
#70000
0L!
#75000
12
1C!
1L!
#80000
0L!
#85000
13
19
0C!
1L!
b00 N!
#90000
0L!
#95000
0(
b00000000000000000000000000000010 *
b00000000000000000000000000000001 +
03
09
b00 *!
1+!
1L!
#100000
0L!
#105000
1%
b1111 &
1(
01
02
07
0+!
1L!
b01 N!
#110000
0L!
#115000
b01 *!
1L!
b10 N!
#120000
0L!
#125000
10
11
b1111 5
17
b10 *!
1L!
#130000
0L!
#135000
12
1C!
1D!
b1111 G!
1L!
#140000
0L!
#145000
13
19
0C!
1L!
b00 N!
#150000
0L!
#155000
0(
b00000000000000000000000000000011 *
b00000000000000000000000000000010 +
03
09
b00 *!
1+!
1L!
#160000
0L!
#165000
0%
b0000 &
1(
01
02
07
0+!
1L!
b01 N!
#170000
0L!
#175000
b01 *!
1L!
b10 N!
#180000
0L!
#185000
00
11
b0000 5
17
b10 *!
1L!
#190000
0L!
#195000
12
1C!
0D!
b0000 G!
1L!
#200000
0L!
#205000
13
19
0C!
1L!
b00 N!
#210000
0L!
#215000
0(
b00000000000000000000000000000100 *
b00000000000000000000000000000011 +
03
09
b00 *!
1+!
1L!
#220000
0L!
#225000
b000000000000000100000000 #
1(
01
02
07
0+!
1L!
b01 N!
#230000
0L!
#235000
b01 *!
1L!
b10 N!
#240000
0L!
#245000
b000000000000000100000000 -
11
1<
b000100000000 B
b000000100000000 G
b0100000000 P
0$!
1%!
b10 *!
1L!
#250000
0L!
#255000
12
1y
1L!
#260000
0L!
#265000
13
1>
0y
1L!
b00 N!
#270000
0L!
#275000
0(
b00000000000000000000000000000101 *
b00000000000000000000000000000100 +
03
0>
b00 *!
1+!
1L!
#280000
0L!
#285000
b00000001000000010000000100000001 $
1%
b1111 &
1(
01
02
0<
0+!
1L!
b01 N!
#290000
0L!
#295000
b01 *!
1L!
b10 N!
#300000
0L!
#305000
b00000001000000010000000100000001 .
10
11
b1111 5
1<
b10 *!
1L!
#310000
0L!
#315000
12
1y
1z
b00000001000000010000000100000001 |
b1111 }
1L!
#320000
0L!
#325000
13
1>
b00000001000000010000000100000001 h
0y
b00000001000000010000000100000001 "!
1L!
b00 N!
#330000
0L!
#335000
0(
b00000000000000000000000000000110 *
b00000000000000000000000000000101 +
03
0>
b00 *!
1+!
1L!
#340000
0L!
#345000
b00000000000000000000000000000000 $
0%
b0000 &
1(
01
02
0<
0+!
1L!
b01 N!
#350000
0L!
#355000
b01 *!
1L!
b10 N!
#360000
0L!
#365000
b00000000000000000000000000000000 .
00
11
b0000 5
1<
b10 *!
1L!
#370000
0L!
#375000
12
1y
0z
b00000000000000000000000000000000 |
b0000 }
1L!
#380000
0L!
#385000
b00000001000000010000000100000001 /
13
1>
b00000001000000010000000100000001 @
0y
1L!
b00 N!
#390000
0L!
#395000
0(
b00000001000000010000000100000001 )
b00000000000000000000000000000111 *
b00000000000000000000000000000110 +
03
0>
b00 *!
1+!
b00000001000000010000000100000001 ,!
1L!
#400000
0L!
#405000
b000000000001000000000000 #
1(
01
02
0<
0+!
1L!
b01 N!
#410000
0L!
#415000
b01 *!
1L!
b10 N!
#420000
0L!
#425000
b000000000001000000000000 -
b00000000000000000000000000000000 /
11
1A
b000000000000 B
b001000000000000 G
b0000000000 P
0%!
1&!
b10 *!
1L!
#430000
0L!
#435000
12
19!
1L!
#440000
0L!
#445000
13
1C
09!
1L!
b00 N!
#450000
0L!
#455000
0(
b00000000000000000000000000000000 )
b00000000000000000000000000001000 *
b00000000000000000000000000000111 +
03
0C
b00 *!
1+!
b00000000000000000000000000000000 ,!
1L!
#460000
0L!
#465000
b00000010000000100000001000000010 $
1%
b1111 &
1(
01
02
0A
0+!
1L!
b01 N!
#470000
0L!
#475000
b01 *!
1L!
b10 N!
#480000
0L!
#485000
b00000010000000100000001000000010 .
10
11
b1111 5
1A
b10 *!
1L!
#490000
0L!
#495000
12
19!
1:!
b00000010000000100000001000000010 <!
b1111 =!
1L!
#500000
0L!
#505000
13
1C
09!
b00000010000000100000001000000010 @!
1L!
b00 N!
#510000
0L!
#515000
0(
b00000000000000000000000000001001 *
b00000000000000000000000000001000 +
03
0C
b00 *!
1+!
1L!
#520000
0L!
#525000
b00000000000000000000000000000000 $
0%
b0000 &
1(
01
02
0A
0+!
1L!
b01 N!
#530000
0L!
#535000
b01 *!
1L!
b10 N!
#540000
0L!
#545000
b00000000000000000000000000000000 .
00
11
b0000 5
1A
b10 *!
1L!
#550000
0L!
#555000
12
19!
0:!
b00000000000000000000000000000000 <!
b0000 =!
1L!
#560000
0L!
#565000
b00000010000000100000001000000010 /
13
1C
b00000010000000100000001000000010 E
09!
1L!
b00 N!
#570000
0L!
#575000
0(
b00000010000000100000001000000010 )
b00000000000000000000000000001010 *
b00000000000000000000000000001001 +
03
0C
b00 *!
1+!
b00000010000000100000001000000010 ,!
1L!
#580000
0L!
#585000
b000000000010000000000000 #
1(
01
02
0A
0+!
1L!
b01 N!
#590000
0L!
#595000
b01 *!
1L!
b10 N!
#600000
0L!
#605000
b000000000010000000000000 -
b00000000000000000000000000000000 /
11
1F
b010000000000000 G
0&!
1'!
b10 *!
1L!
#610000
0L!
#615000
12
1U
b010000000000000 W
b000100000000000 [
1L!
#620000
0L!
#625000
13
1H
0U
1L!
b00 N!
#630000
0L!
#635000
0(
b00000000000000000000000000000000 )
b00000000000000000000000000001011 *
b00000000000000000000000000001010 +
03
0H
b00 *!
1+!
b00000000000000000000000000000000 ,!
1L!
#640000
0L!
#645000
b00000011000000110000001100000011 $
1%
b1111 &
1(
01
02
0F
0+!
1L!
b01 N!
#650000
0L!
#655000
b01 *!
1L!
b10 N!
#660000
0L!
#665000
b00000011000000110000001100000011 .
10
11
b1111 5
1F
b10 *!
1L!
#670000
0L!
#675000
12
1U
1V
b00000011000000110000001100000011 X
b1111 Y
1L!
#680000
0L!
#685000
13
1H
0U
b00000011000000110000001100000011 \
1L!
b00 N!
#690000
0L!
#695000
0(
b00000000000000000000000000001100 *
b00000000000000000000000000001011 +
03
0H
b00 *!
1+!
1L!
#700000
0L!
#705000
b00000000000000000000000000000000 $
0%
b0000 &
1(
01
02
0F
0+!
1L!
b01 N!
#710000
0L!
#715000
b01 *!
1L!
b10 N!
#720000
0L!
#725000
b00000000000000000000000000000000 .
00
11
b0000 5
1F
b10 *!
1L!
#730000
0L!
#735000
12
1U
0V
b00000000000000000000000000000000 X
b0000 Y
1L!
#740000
0L!
#745000
b00000011000000110000001100000011 /
13
1H
b00000011000000110000001100000011 J
0U
1L!
b00 N!
#750000
0L!
#755000
0(
b00000011000000110000001100000011 )
b00000000000000000000000000001101 *
b00000000000000000000000000001100 +
03
0H
b00 *!
1+!
b00000011000000110000001100000011 ,!
1L!
#760000
0L!
#765000
b000000001010000000000000 #
1(
01
02
0F
0+!
1L!
b01 N!
#770000
0L!
#775000
b01 *!
1L!
b10 N!
#780000
0L!
#785000
b000000001010000000000000 -
b00000000000000000000000000000000 /
11
1K
0'!
1(!
b10 *!
1L!
#790000
0L!
#795000
12
1/!
1L!
#800000
0L!
#805000
13
1L
0/!
1L!
b00 N!
#810000
0L!
#815000
0(
b00000000000000000000000000000000 )
b00000000000000000000000000001110 *
b00000000000000000000000000001101 +
03
0L
b00 *!
1+!
b00000000000000000000000000000000 ,!
1L!
#820000
0L!
#825000
b00000100000001000000010000000100 $
1%
b1111 &
1(
01
02
0K
0+!
1L!
b01 N!
#830000
0L!
#835000
b01 *!
1L!
b10 N!
#840000
0L!
#845000
b00000100000001000000010000000100 .
10
11
b1111 5
1K
b10 *!
1L!
#850000
0L!
#855000
12
1/!
10!
b00000100000001000000010000000100 2!
b1111 3!
1L!
#860000
0L!
#865000
13
1L
0/!
b00000100000001000000010000000100 6!
1L!
b00 N!
#870000
0L!
#875000
0(
b00000000000000000000000000001111 *
b00000000000000000000000000001110 +
03
0L
b00 *!
1+!
1L!
#880000
0L!
#885000
b00000000000000000000000000000000 $
0%
b0000 &
1(
01
02
0K
0+!
1L!
b01 N!
#890000
0L!
#895000
b01 *!
1L!
b10 N!
#900000
0L!
